[gd_scene load_steps=15 format=2]

[ext_resource path="res://Scripts/Level_1.gd" type="Script" id=1]
[ext_resource path="res://Scenes/ParallaxBackground.tscn" type="PackedScene" id=2]
[ext_resource path="res://Scenes/Player.tscn" type="PackedScene" id=3]
[ext_resource path="res://Assets/Tiles/Level_1.tres" type="TileSet" id=4]
[ext_resource path="res://Scenes/Spikes.tscn" type="PackedScene" id=5]
[ext_resource path="res://Assets/Tiles/Level_2.tres" type="TileSet" id=6]
[ext_resource path="res://Scenes/ForrestAmbient.tscn" type="PackedScene" id=7]
[ext_resource path="res://Scenes/Dead_Body.tscn" type="PackedScene" id=8]
[ext_resource path="res://Scripts/TimerTimeout.gd" type="Script" id=9]
[ext_resource path="res://Assets/Fonts/new_dynamicfont.tres" type="DynamicFont" id=10]
[ext_resource path="res://Scenes/Limit.gd" type="Script" id=11]
[ext_resource path="res://Scenes/Awake.gd" type="Script" id=12]

[sub_resource type="RectangleShape2D" id=1]

[sub_resource type="RectangleShape2D" id=2]
extents = Vector2( 160, 80 )

[node name="Level_1" type="Node2D"]
script = ExtResource( 1 )

[node name="ParallaxBackground" parent="." instance=ExtResource( 2 )]
offset = Vector2( 0, -106 )
scale = Vector2( 1, 1 )
transform = Transform2D( 1, 0, 0, 1, 0, -106 )

[node name="Player" parent="." instance=ExtResource( 3 )]
position = Vector2( 141.231, -45.1746 )

[node name="TileMap" type="TileMap" parent="."]
tile_set = ExtResource( 4 )
cell_size = Vector2( 32, 32 )
format = 1
tile_data = PoolIntArray( -458733, 7, 0, -458707, 4, 0, -458706, 4, 0, -458705, 4, 0, -458704, 4, 0, -458703, 4, 0, -458702, 4, 0, -458701, 4, 0, -458700, 4, 0, -458699, 4, 0, -458698, 4, 0, -458697, 4, 0, -458696, 4, 0, -327619, 5, 0, -262134, 7, 0, -262084, 5, 0, -262083, 2, 0, -196599, 7, 0, -196598, 7, 0, -196588, 7, 0, -196580, 6, 0, -196549, 5, 0, -196548, 2, 0, -196547, 2, 0, -131064, 7, 0, -131063, 7, 0, -131062, 7, 0, -131054, 7, 0, -131014, 5, 0, -131013, 2, 0, -131012, 2, 0, -131011, 2, 0, -65527, 7, 0, -65526, 7, 0, -65520, 7, 0, -65519, 7, 0, -65505, 8, 0, -65504, 8, 0, -65503, 8, 0, -65502, 8, 0, -65501, 8, 0, -65500, 8, 0, -65499, 8, 0, -65491, 6, 0, -65490, 6, 0, -65489, 6, 0, -65488, 6, 0, -65487, 6, 0, -65486, 6, 0, -65485, 6, 0, -65484, 6, 0, -65483, 6, 0, -65482, 6, 0, -65481, 6, 0, -65480, 6, 0, -65479, 2, 0, -65478, 2, 0, -65477, 2, 0, -65476, 2, 0, -65475, 2, 0, 0, 7, 0, 1, 7, 0, 2, 7, 0, 3, 7, 0, 4, 7, 0, 5, 7, 0, 6, 7, 0, 58, 2, 0, 59, 2, 0, 60, 2, 0, 61, 2, 0 )

[node name="Spikes" parent="." instance=ExtResource( 5 )]
position = Vector2( 624, -176 )
rotation = 3.14159

[node name="Spikes2" parent="." instance=ExtResource( 5 )]
position = Vector2( 496, -16 )

[node name="Spikes3" parent="." instance=ExtResource( 5 )]
position = Vector2( 240, -16 )

[node name="Spikes4" parent="." instance=ExtResource( 5 )]
position = Vector2( 736, -16 )

[node name="Spikes5" parent="." instance=ExtResource( 5 )]
position = Vector2( 768, -16 )

[node name="Spikes6" parent="." instance=ExtResource( 5 )]
position = Vector2( 800, -16 )

[node name="Spikes7" parent="." instance=ExtResource( 5 )]
position = Vector2( 832, -16 )

[node name="Spikes8" parent="." instance=ExtResource( 5 )]
position = Vector2( 1488, -46 )

[node name="Spikes26" parent="." instance=ExtResource( 5 )]
position = Vector2( 1648, -46 )

[node name="Spikes9" parent="." instance=ExtResource( 5 )]
position = Vector2( 1520, -46 )

[node name="Spikes27" parent="." instance=ExtResource( 5 )]
position = Vector2( 1680, -46 )

[node name="Spikes10" parent="." instance=ExtResource( 5 )]
position = Vector2( 1488, -176 )
rotation = 3.14159

[node name="Spikes21" parent="." instance=ExtResource( 5 )]
position = Vector2( 1648, -176 )
rotation = 3.14159

[node name="Spikes11" parent="." instance=ExtResource( 5 )]
position = Vector2( 1520, -176 )
rotation = 3.14159

[node name="Spikes22" parent="." instance=ExtResource( 5 )]
position = Vector2( 1680, -176 )
rotation = 3.14159

[node name="Spikes12" parent="." instance=ExtResource( 5 )]
position = Vector2( 1552, -46 )

[node name="Spikes24" parent="." instance=ExtResource( 5 )]
position = Vector2( 1712, -46 )

[node name="Spikes13" parent="." instance=ExtResource( 5 )]
position = Vector2( 1552, -176 )
rotation = 3.14159

[node name="Spikes19" parent="." instance=ExtResource( 5 )]
position = Vector2( 1712, -176 )
rotation = 3.14159

[node name="Spikes14" parent="." instance=ExtResource( 5 )]
position = Vector2( 1584, -46 )

[node name="Spikes23" parent="." instance=ExtResource( 5 )]
position = Vector2( 1744, -46 )

[node name="Spikes15" parent="." instance=ExtResource( 5 )]
position = Vector2( 1584, -176 )
rotation = 3.14159

[node name="Spikes20" parent="." instance=ExtResource( 5 )]
position = Vector2( 1744, -176 )
rotation = 3.14159

[node name="Spikes16" parent="." instance=ExtResource( 5 )]
position = Vector2( 1616, -46 )

[node name="Spikes25" parent="." instance=ExtResource( 5 )]
position = Vector2( 1776, -46 )

[node name="Spikes17" parent="." instance=ExtResource( 5 )]
position = Vector2( 1616, -176 )
rotation = 3.14159

[node name="Spikes18" parent="." instance=ExtResource( 5 )]
position = Vector2( 1776, -176 )
rotation = 3.14159

[node name="TileMap2" type="TileMap" parent="."]
tile_set = ExtResource( 6 )
cell_size = Vector2( 16, 16 )
format = 1
tile_data = PoolIntArray( -786445, 1, 0, -786444, 1, 0, -786443, 1, 0, -786442, 1, 0, -786441, 1, 0, -786440, 1, 0, -786439, 1, 0, -786438, 1, 0, -786437, 1, 0, -786436, 1, 0, -786435, 1, 0, -786434, 1, 0, -786433, 2, 0, -720909, 11, 0, -720908, 11, 0, -720907, 11, 0, -720906, 11, 0, -720905, 11, 0, -720904, 11, 0, -720903, 11, 0, -720902, 11, 0, -720901, 11, 0, -720900, 11, 0, -720899, 11, 0, -720898, 7, 0, -720897, 5, 0, -655373, 10, 0, -655372, 10, 0, -655371, 10, 0, -655370, 10, 0, -655369, 10, 0, -655368, 10, 0, -655367, 10, 0, -655366, 10, 0, -655365, 10, 0, -655364, 10, 0, -655363, 10, 0, -655362, 8, 0, -655361, 5, 0, -589837, 10, 0, -589836, 10, 0, -589835, 10, 0, -589834, 10, 0, -589833, 10, 0, -589832, 10, 0, -589831, 10, 0, -589830, 10, 0, -589829, 10, 0, -589828, 10, 0, -589827, 10, 0, -589826, 8, 0, -589825, 5, 0, -524301, 10, 0, -524300, 10, 0, -524299, 10, 0, -524298, 10, 0, -524297, 10, 0, -524296, 10, 0, -524295, 10, 0, -524294, 10, 0, -524293, 10, 0, -524292, 10, 0, -524291, 10, 0, -524290, 8, 0, -524289, 5, 0, -458765, 10, 0, -458764, 10, 0, -458763, 10, 0, -458762, 10, 0, -458761, 10, 0, -458760, 10, 0, -458759, 10, 0, -458758, 10, 0, -458757, 10, 0, -458756, 10, 0, -458755, 10, 0, -458754, 8, 0, -458753, 5, 0, -393229, 10, 0, -393228, 10, 0, -393227, 10, 0, -393226, 10, 0, -393225, 10, 0, -393224, 10, 0, -393223, 10, 0, -393222, 10, 0, -393221, 10, 0, -393220, 10, 0, -393219, 10, 0, -393218, 8, 0, -393217, 5, 0, -327693, 10, 0, -327692, 10, 0, -327691, 10, 0, -327690, 10, 0, -327689, 10, 0, -327688, 10, 0, -327687, 10, 0, -327686, 10, 0, -327685, 10, 0, -327684, 10, 0, -327683, 10, 0, -327682, 8, 0, -327681, 5, 0, -262157, 10, 0, -262156, 10, 0, -262155, 10, 0, -262154, 10, 0, -262153, 10, 0, -262152, 10, 0, -262151, 10, 0, -262150, 10, 0, -262149, 10, 0, -262148, 10, 0, -262147, 10, 0, -262146, 8, 0, -262145, 5, 0, -196621, 10, 0, -196620, 10, 0, -196619, 10, 0, -196618, 10, 0, -196617, 10, 0, -196616, 10, 0, -196615, 10, 0, -196614, 10, 0, -196613, 10, 0, -196612, 10, 0, -196611, 10, 0, -196610, 8, 0, -196609, 5, 0, -131085, 10, 0, -131084, 10, 0, -131083, 10, 0, -131082, 10, 0, -131081, 10, 0, -131080, 10, 0, -131079, 10, 0, -131078, 10, 0, -131077, 10, 0, -131076, 10, 0, -131075, 10, 0, -131074, 8, 0, -131073, 5, 0, -65549, 10, 0, -65548, 10, 0, -65547, 10, 0, -65546, 10, 0, -65545, 10, 0, -65544, 10, 0, -65543, 10, 0, -65542, 10, 0, -65541, 10, 0, -65540, 10, 0, -65539, 10, 0, -65538, 8, 0, -65537, 5, 0, -13, 10, 0, -12, 10, 0, -11, 10, 0, -10, 10, 0, -9, 10, 0, -8, 10, 0, -7, 10, 0, -6, 10, 0, -5, 10, 0, -4, 10, 0, -3, 10, 0, -2, 8, 0, -1, 5, 0, -65457, 0, 0, -65456, 1, 0, -65455, 1, 0, -65454, 1, 0, -65453, 1, 0, -65452, 1, 0, -65451, 1, 0, -65450, 1, 0, -65449, 1, 0, -65448, 2, 0, 65523, 10, 0, 65524, 10, 0, 65525, 10, 0, 65526, 10, 0, 65527, 10, 0, 65528, 10, 0, 65529, 10, 0, 65530, 10, 0, 65531, 10, 0, 65532, 10, 0, 65533, 10, 0, 65534, 8, 0, 65535, 5, 0, 131059, 10, 0, 131060, 10, 0, 131061, 10, 0, 131062, 10, 0, 131063, 10, 0, 131064, 10, 0, 131065, 10, 0, 131066, 10, 0, 131067, 10, 0, 131068, 10, 0, 131069, 10, 0, 131070, 8, 0, 131071, 6, 0 )

[node name="ForrestAmbient" parent="." instance=ExtResource( 7 )]

[node name="Dead_Body" parent="." instance=ExtResource( 8 )]
position = Vector2( 1174.81, -39.6161 )

[node name="TimerTimeout" type="Timer" parent="."]
script = ExtResource( 9 )

[node name="MarginContainer" type="MarginContainer" parent="."]
margin_top = -216.0
margin_right = 38.195
margin_bottom = -173.891

[node name="Label" type="Label" parent="MarginContainer"]
margin_top = 9.0
margin_right = 274.0
margin_bottom = 32.0
custom_fonts/font = ExtResource( 10 )
text = "You have 60 seconds before darkness fall"

[node name="Limit" type="Area2D" parent="."]
position = Vector2( 0, 20 )
scale = Vector2( 3840, 1 )
script = ExtResource( 11 )

[node name="CollisionShape2D" type="CollisionShape2D" parent="Limit"]
scale = Vector2( 3.37955, 1.50959 )
shape = SubResource( 1 )

[node name="Label" type="Label" parent="."]
margin_left = 1028.71
margin_top = -206.069
margin_right = 1164.71
margin_bottom = -183.069
custom_fonts/font = ExtResource( 10 )
text = "What is this place?"

[node name="Label2" type="Label" parent="."]
margin_left = 1592.2
margin_top = -124.303
margin_right = 1657.2
margin_bottom = -101.303
custom_fonts/font = ExtResource( 10 )
text = "Wake up"

[node name="Label3" type="Label" parent="."]
margin_left = 2036.34
margin_top = -200.422
margin_right = 2098.34
margin_bottom = -177.422
custom_fonts/font = ExtResource( 10 )
text = "JUMP"

[node name="Awake" type="Area2D" parent="."]
position = Vector2( 2120.14, -73.3251 )
script = ExtResource( 12 )

[node name="CollisionShape2D" type="CollisionShape2D" parent="Awake"]
position = Vector2( 6.28491, 25.8383 )
shape = SubResource( 2 )
[connection signal="tree_entered" from="Player" to="Player" method="_on_Player_tree_entered"]
[connection signal="timeout" from="TimerTimeout" to="." method="_on_TimerTimeout_timeout"]
[connection signal="body_entered" from="Limit" to="Limit" method="_on_Limit_body_entered"]
[connection signal="body_entered" from="Awake" to="Awake" method="_on_Awake_body_entered"]
